LineNumber,VariableName,Type,Description
1,ex,vector<float>,"x-direction energy from MET"
2,ey,vector<float>,"y-direction energy from MET"
3,ez,vector<float>,"z-direction energy from MET"
4,sumEt,vector<float>,"Sum of transverse energy from MET"
5,sumE,vector<float>,"Sum of energy from MET"
6,flag,vector<int>,"Flag for MET"
7,roiWord,vector<unsigned int>,"L1 Region of interest word for MET"
